SingleCLKFIFO/waveform.vcd
$version Generated by VerilatedVcd $end
$timescale 1ps $end
 $scope module TOP $end
  $scope module SingleCLKFIFO_tb $end
   $var wire 1 / clk $end
   $var wire 1 # reset $end
   $var wire 1 0 wr_en $end
   $var wire 1 1 rd_en $end
   $var wire 32 2 wr_data [31:0] $end
   $var wire 32 3 rd_data [31:0] $end
   $var wire 1 4 empty $end
   $var wire 1 5 full $end
   $var wire 1 6 valid $end
   $var wire 1 7 almost_full $end
   $scope module fifo_dut $end
    $var wire 1 / clk $end
    $var wire 1 # rst $end
    $var wire 1 % wr_en $end
    $var wire 32 & wr_data [31:0] $end
    $var wire 1 ' rd_en $end
    $var wire 32 + rd_data [31:0] $end
    $var wire 1 , valid $end
    $var wire 1 - empty $end
    $var wire 1 . full $end
    $var wire 1 9 almost_full $end
   $upscope $end
   $scope module u_SingleCLKFIFO $end
    $scope module fifo $end
     $var wire 1 / clk $end
     $var wire 1 # rst $end
     $var wire 1 % wr_en $end
     $var wire 32 & wr_data [31:0] $end
     $var wire 1 ' rd_en $end
     $var wire 32 + rd_data [31:0] $end
     $var wire 1 , valid $end
     $var wire 1 - empty $end
     $var wire 1 . full $end
     $var wire 1 9 almost_full $end
    $upscope $end
    $var wire 9 ( wr_ptr [8:0] $end
    $var wire 9 ) rd_ptr [8:0] $end
    $var wire 8 8 diff_ptr [7:0] $end
    $var wire 8 * cnt [7:0] $end
   $upscope $end
   $scope module unnamedblk1 $end
    $var wire 32 $ i [31:0] $end
   $upscope $end
  $upscope $end
 $upscope $end
$enddefinitions $end


#0
0#
b00000000000000000000000000000000 $
0%
b00000000000000000000000000000000 &
0'
b000000000 (
b000000000 )
b00000000 *
b00000000000000000000000000000000 +
0,
1-
0.
0/
00
01
b00000000000000000000000000000000 2
b00000000000000000000000000000000 3
04
05
06
07
b00000000 8
09
#5000
1/
#10000
1#
0/
#15000
1/
#20000
0#
0/
#25000
1/
#30000
1%
1'
0/
#35000
b000000001 (
b00000001 *
0-
1/
#40000
b00000000000000000000000000000001 $
0/
#45000
b000000010 (
b000000001 )
b00000000 *
1,
1/
#50000
b00000000000000000000000000000010 $
b00000000000000000000000000000001 &
0/
#55000
b000000011 (
b000000010 )
b11111111 *
1/
#60000
b00000000000000000000000000000011 $
b00000000000000000000000000000010 &
0/
#65000
b000000100 (
b000000011 )
b11111110 *
b00000000000000000000000000000001 +
1/
#70000
b00000000000000000000000000000100 $
b00000000000000000000000000000011 &
0/
#75000
b000000101 (
b000000100 )
b11111101 *
b00000000000000000000000000000010 +
1/
#80000
b00000000000000000000000000000101 $
b00000000000000000000000000000100 &
0/
#85000
b000000110 (
b000000101 )
b11111100 *
b00000000000000000000000000000011 +
1/
#90000
b00000000000000000000000000000110 $
b00000000000000000000000000000101 &
0/
#95000
b000000111 (
b000000110 )
b11111011 *
b00000000000000000000000000000100 +
1/
#100000
b00000000000000000000000000000111 $
b00000000000000000000000000000110 &
0/
#105000
b000001000 (
b000000111 )
b11111010 *
b00000000000000000000000000000101 +
1/
#110000
b00000000000000000000000000001000 $
b00000000000000000000000000000111 &
0/
#115000
b000001001 (
b000001000 )
b11111001 *
b00000000000000000000000000000110 +
1/
#120000
b00000000000000000000000000001001 $
b00000000000000000000000000001000 &
0/
#125000
b000001010 (
b000001001 )
b11111000 *
b00000000000000000000000000000111 +
1/
#130000
b00000000000000000000000000001010 $
b00000000000000000000000000001001 &
0/
#135000
b000001011 (
b000001010 )
b11110111 *
b00000000000000000000000000001000 +
1/
#140000
b00000000000000000000000000001011 $
b00000000000000000000000000001010 &
0/
#145000
b000001100 (
b000001011 )
b11110110 *
b00000000000000000000000000001001 +
1/
#150000
b00000000000000000000000000001100 $
b00000000000000000000000000001011 &
0/
#155000
b000001101 (
b000001100 )
b11110101 *
b00000000000000000000000000001010 +
1/
#160000
b00000000000000000000000000001101 $
b00000000000000000000000000001100 &
0/
#165000
b000001110 (
b000001101 )
b11110100 *
b00000000000000000000000000001011 +
1/
#170000
b00000000000000000000000000001110 $
b00000000000000000000000000001101 &
0/
#175000
b000001111 (
b000001110 )
b11110011 *
b00000000000000000000000000001100 +
1/
#180000
b00000000000000000000000000001111 $
b00000000000000000000000000001110 &
0/
#185000
b000010000 (
b000001111 )
b11110010 *
b00000000000000000000000000001101 +
1/
#190000
b00000000000000000000000000010000 $
b00000000000000000000000000001111 &
0/
#195000
b000010001 (
b000010000 )
b11110001 *
b00000000000000000000000000001110 +
1/
#200000
b00000000000000000000000000010001 $
b00000000000000000000000000010000 &
0/
#205000
b000010010 (
b000010001 )
b11110000 *
b00000000000000000000000000001111 +
1/
#210000
b00000000000000000000000000010010 $
b00000000000000000000000000010001 &
0/
#215000
b000010011 (
b000010010 )
b11101111 *
b00000000000000000000000000010000 +
1/
#220000
b00000000000000000000000000010011 $
b00000000000000000000000000010010 &
0/
#225000
b000010100 (
b000010011 )
b11101110 *
b00000000000000000000000000010001 +
1/
#230000
b00000000000000000000000000010100 $
b00000000000000000000000000010011 &
0/
#235000
b000010101 (
b000010100 )
b11101101 *
b00000000000000000000000000010010 +
1/
#240000
b00000000000000000000000000010101 $
b00000000000000000000000000010100 &
0/
#245000
b000010110 (
b000010101 )
b11101100 *
b00000000000000000000000000010011 +
1/
#250000
b00000000000000000000000000010110 $
b00000000000000000000000000010101 &
0/
#255000
b000010111 (
b000010110 )
b11101011 *
b00000000000000000000000000010100 +
1/
#260000
b00000000000000000000000000010111 $
b00000000000000000000000000010110 &
0/
#265000
b000011000 (
b000010111 )
b11101010 *
b00000000000000000000000000010101 +
1/
#270000
b00000000000000000000000000011000 $
b00000000000000000000000000010111 &
0/
#275000
b000011001 (
b000011000 )
b11101001 *
b00000000000000000000000000010110 +
1/
#280000
b00000000000000000000000000011001 $
b00000000000000000000000000011000 &
0/
#285000
b000011010 (
b000011001 )
b11101000 *
b00000000000000000000000000010111 +
1/
#290000
b00000000000000000000000000011010 $
b00000000000000000000000000011001 &
0/
#295000
b000011011 (
b000011010 )
b11100111 *
b00000000000000000000000000011000 +
1/
#300000
b00000000000000000000000000011011 $
b00000000000000000000000000011010 &
0/
#305000
b000011100 (
b000011011 )
b11100110 *
b00000000000000000000000000011001 +
1/
#310000
b00000000000000000000000000011100 $
b00000000000000000000000000011011 &
0/
#315000
b000011101 (
b000011100 )
b11100101 *
b00000000000000000000000000011010 +
1/
#320000
b00000000000000000000000000011101 $
b00000000000000000000000000011100 &
0/
#325000
b000011110 (
b000011101 )
b11100100 *
b00000000000000000000000000011011 +
1/
#330000
b00000000000000000000000000011110 $
b00000000000000000000000000011101 &
0/
#335000
b000011111 (
b000011110 )
b11100011 *
b00000000000000000000000000011100 +
1/
#340000
b00000000000000000000000000011111 $
b00000000000000000000000000011110 &
0/
#345000
b000100000 (
b000011111 )
b11100010 *
b00000000000000000000000000011101 +
1/
#350000
b00000000000000000000000000100000 $
b00000000000000000000000000011111 &
0/
#355000
b000100001 (
b000100000 )
b11100001 *
b00000000000000000000000000011110 +
1/
#360000
b00000000000000000000000000100001 $
b00000000000000000000000000100000 &
0/
#365000
b000100010 (
b000100001 )
b11100000 *
b00000000000000000000000000011111 +
1/
#370000
b00000000000000000000000000100010 $
b00000000000000000000000000100001 &
0/
#375000
b000100011 (
b000100010 )
b11011111 *
b00000000000000000000000000100000 +
1/
#380000
b00000000000000000000000000100011 $
b00000000000000000000000000100010 &
0/
#385000
b000100100 (
b000100011 )
b11011110 *
b00000000000000000000000000100001 +
1/
#390000
b00000000000000000000000000100100 $
b00000000000000000000000000100011 &
0/
#395000
b000100101 (
b000100100 )
b11011101 *
b00000000000000000000000000100010 +
1/
#400000
b00000000000000000000000000100101 $
b00000000000000000000000000100100 &
0/
#405000
b000100110 (
b000100101 )
b11011100 *
b00000000000000000000000000100011 +
1/
#410000
b00000000000000000000000000100110 $
b00000000000000000000000000100101 &
0/
#415000
b000100111 (
b000100110 )
b11011011 *
b00000000000000000000000000100100 +
1/
#420000
b00000000000000000000000000100111 $
b00000000000000000000000000100110 &
0/
#425000
b000101000 (
b000100111 )
b11011010 *
b00000000000000000000000000100101 +
1/
#430000
b00000000000000000000000000101000 $
b00000000000000000000000000100111 &
0/
#435000
b000101001 (
b000101000 )
b11011001 *
b00000000000000000000000000100110 +
1/
#440000
b00000000000000000000000000101001 $
b00000000000000000000000000101000 &
0/
#445000
b000101010 (
b000101001 )
b11011000 *
b00000000000000000000000000100111 +
1/
#450000
b00000000000000000000000000101010 $
b00000000000000000000000000101001 &
0/
#455000
b000101011 (
b000101010 )
b11010111 *
b00000000000000000000000000101000 +
1/
#460000
b00000000000000000000000000101011 $
b00000000000000000000000000101010 &
0/
#465000
b000101100 (
b000101011 )
b11010110 *
b00000000000000000000000000101001 +
1/
#470000
b00000000000000000000000000101100 $
b00000000000000000000000000101011 &
0/
#475000
b000101101 (
b000101100 )
b11010101 *
b00000000000000000000000000101010 +
1/
#480000
b00000000000000000000000000101101 $
b00000000000000000000000000101100 &
0/
#485000
b000101110 (
b000101101 )
b11010100 *
b00000000000000000000000000101011 +
1/
#490000
b00000000000000000000000000101110 $
b00000000000000000000000000101101 &
0/
#495000
b000101111 (
b000101110 )
b11010011 *
b00000000000000000000000000101100 +
1/
#500000
b00000000000000000000000000101111 $
b00000000000000000000000000101110 &
0/
#505000
b000110000 (
b000101111 )
b11010010 *
b00000000000000000000000000101101 +
1/
#510000
b00000000000000000000000000110000 $
b00000000000000000000000000101111 &
0/
#515000
b000110001 (
b000110000 )
b11010001 *
b00000000000000000000000000101110 +
1/
#520000
b00000000000000000000000000110001 $
b00000000000000000000000000110000 &
0/
#525000
b000110010 (
b000110001 )
b11010000 *
b00000000000000000000000000101111 +
1/
#530000
b00000000000000000000000000110010 $
b00000000000000000000000000110001 &
0/
#535000
b000110011 (
b000110010 )
b11001111 *
b00000000000000000000000000110000 +
1/
#540000
b00000000000000000000000000110011 $
b00000000000000000000000000110010 &
0/
#545000
b000110100 (
b000110011 )
b11001110 *
b00000000000000000000000000110001 +
1/
#550000
b00000000000000000000000000110100 $
b00000000000000000000000000110011 &
0/
#555000
b000110101 (
b000110100 )
b11001101 *
b00000000000000000000000000110010 +
1/
#560000
b00000000000000000000000000110101 $
b00000000000000000000000000110100 &
0/
#565000
b000110110 (
b000110101 )
b11001100 *
b00000000000000000000000000110011 +
1/
#570000
b00000000000000000000000000110110 $
b00000000000000000000000000110101 &
0/
#575000
b000110111 (
b000110110 )
b11001011 *
b00000000000000000000000000110100 +
1/
#580000
b00000000000000000000000000110111 $
b00000000000000000000000000110110 &
0/
#585000
b000111000 (
b000110111 )
b11001010 *
b00000000000000000000000000110101 +
1/
#590000
b00000000000000000000000000111000 $
b00000000000000000000000000110111 &
0/
#595000
b000111001 (
b000111000 )
b11001001 *
b00000000000000000000000000110110 +
1/
#600000
b00000000000000000000000000111001 $
b00000000000000000000000000111000 &
0/
#605000
b000111010 (
b000111001 )
b11001000 *
b00000000000000000000000000110111 +
1/
#610000
b00000000000000000000000000111010 $
b00000000000000000000000000111001 &
0/
#615000
b000111011 (
b000111010 )
b11000111 *
b00000000000000000000000000111000 +
1/
#620000
b00000000000000000000000000111011 $
b00000000000000000000000000111010 &
0/
#625000
b000111100 (
b000111011 )
b11000110 *
b00000000000000000000000000111001 +
1/
#630000
b00000000000000000000000000111100 $
b00000000000000000000000000111011 &
0/
#635000
b000111101 (
b000111100 )
b11000101 *
b00000000000000000000000000111010 +
1/
#640000
b00000000000000000000000000111101 $
b00000000000000000000000000111100 &
0/
#645000
b000111110 (
b000111101 )
b11000100 *
b00000000000000000000000000111011 +
1/
#650000
b00000000000000000000000000111110 $
b00000000000000000000000000111101 &
0/
#655000
b000111111 (
b000111110 )
b11000011 *
b00000000000000000000000000111100 +
1/
#660000
b00000000000000000000000000111111 $
b00000000000000000000000000111110 &
0/
#665000
b001000000 (
b000111111 )
b11000010 *
b00000000000000000000000000111101 +
1/
#670000
b00000000000000000000000001000000 $
b00000000000000000000000000111111 &
0/
#675000
b001000001 (
b001000000 )
b11000001 *
b00000000000000000000000000111110 +
1/
#680000
b00000000000000000000000001000001 $
b00000000000000000000000001000000 &
0/
#685000
b001000010 (
b001000001 )
b11000000 *
b00000000000000000000000000111111 +
1/
#690000
b00000000000000000000000001000010 $
b00000000000000000000000001000001 &
0/
#695000
b001000011 (
b001000010 )
b10111111 *
b00000000000000000000000001000000 +
1/
#700000
b00000000000000000000000001000011 $
b00000000000000000000000001000010 &
0/
#705000
b001000100 (
b001000011 )
b10111110 *
b00000000000000000000000001000001 +
1/
#710000
b00000000000000000000000001000100 $
b00000000000000000000000001000011 &
0/
#715000
b001000101 (
b001000100 )
b10111101 *
b00000000000000000000000001000010 +
1/
#720000
b00000000000000000000000001000101 $
b00000000000000000000000001000100 &
0/
#725000
b001000110 (
b001000101 )
b10111100 *
b00000000000000000000000001000011 +
1/
#730000
b00000000000000000000000001000110 $
b00000000000000000000000001000101 &
0/
#735000
b001000111 (
b001000110 )
b10111011 *
b00000000000000000000000001000100 +
1/
#740000
b00000000000000000000000001000111 $
b00000000000000000000000001000110 &
0/
#745000
b001001000 (
b001000111 )
b10111010 *
b00000000000000000000000001000101 +
1/
#750000
b00000000000000000000000001001000 $
b00000000000000000000000001000111 &
0/
#755000
b001001001 (
b001001000 )
b10111001 *
b00000000000000000000000001000110 +
1/
#760000
b00000000000000000000000001001001 $
b00000000000000000000000001001000 &
0/
#765000
b001001010 (
b001001001 )
b10111000 *
b00000000000000000000000001000111 +
1/
#770000
b00000000000000000000000001001010 $
b00000000000000000000000001001001 &
0/
#775000
b001001011 (
b001001010 )
b10110111 *
b00000000000000000000000001001000 +
1/
#780000
b00000000000000000000000001001011 $
b00000000000000000000000001001010 &
0/
#785000
b001001100 (
b001001011 )
b10110110 *
b00000000000000000000000001001001 +
1/
#790000
b00000000000000000000000001001100 $
b00000000000000000000000001001011 &
0/
#795000
b001001101 (
b001001100 )
b10110101 *
b00000000000000000000000001001010 +
1/
#800000
b00000000000000000000000001001101 $
b00000000000000000000000001001100 &
0/
#805000
b001001110 (
b001001101 )
b10110100 *
b00000000000000000000000001001011 +
1/
#810000
b00000000000000000000000001001110 $
b00000000000000000000000001001101 &
0/
#815000
b001001111 (
b001001110 )
b10110011 *
b00000000000000000000000001001100 +
1/
#820000
b00000000000000000000000001001111 $
b00000000000000000000000001001110 &
0/
#825000
b001010000 (
b001001111 )
b10110010 *
b00000000000000000000000001001101 +
1/
#830000
b00000000000000000000000001010000 $
b00000000000000000000000001001111 &
0/
#835000
b001010001 (
b001010000 )
b10110001 *
b00000000000000000000000001001110 +
1/
#840000
b00000000000000000000000001010001 $
b00000000000000000000000001010000 &
0/
#845000
b001010010 (
b001010001 )
b10110000 *
b00000000000000000000000001001111 +
1/
#850000
b00000000000000000000000001010010 $
b00000000000000000000000001010001 &
0/
#855000
b001010011 (
b001010010 )
b10101111 *
b00000000000000000000000001010000 +
1/
#860000
b00000000000000000000000001010011 $
b00000000000000000000000001010010 &
0/
#865000
b001010100 (
b001010011 )
b10101110 *
b00000000000000000000000001010001 +
1/
#870000
b00000000000000000000000001010100 $
b00000000000000000000000001010011 &
0/
#875000
b001010101 (
b001010100 )
b10101101 *
b00000000000000000000000001010010 +
1/
#880000
b00000000000000000000000001010101 $
b00000000000000000000000001010100 &
0/
#885000
b001010110 (
b001010101 )
b10101100 *
b00000000000000000000000001010011 +
1/
#890000
b00000000000000000000000001010110 $
b00000000000000000000000001010101 &
0/
#895000
b001010111 (
b001010110 )
b10101011 *
b00000000000000000000000001010100 +
1/
#900000
b00000000000000000000000001010111 $
b00000000000000000000000001010110 &
0/
#905000
b001011000 (
b001010111 )
b10101010 *
b00000000000000000000000001010101 +
1/
#910000
b00000000000000000000000001011000 $
b00000000000000000000000001010111 &
0/
#915000
b001011001 (
b001011000 )
b10101001 *
b00000000000000000000000001010110 +
1/
#920000
b00000000000000000000000001011001 $
b00000000000000000000000001011000 &
0/
#925000
b001011010 (
b001011001 )
b10101000 *
b00000000000000000000000001010111 +
1/
#930000
b00000000000000000000000001011010 $
b00000000000000000000000001011001 &
0/
#935000
b001011011 (
b001011010 )
b10100111 *
b00000000000000000000000001011000 +
1/
#940000
b00000000000000000000000001011011 $
b00000000000000000000000001011010 &
0/
#945000
b001011100 (
b001011011 )
b10100110 *
b00000000000000000000000001011001 +
1/
#950000
b00000000000000000000000001011100 $
b00000000000000000000000001011011 &
0/
#955000
b001011101 (
b001011100 )
b10100101 *
b00000000000000000000000001011010 +
1/
#960000
b00000000000000000000000001011101 $
b00000000000000000000000001011100 &
0/
#965000
b001011110 (
b001011101 )
b10100100 *
b00000000000000000000000001011011 +
1/
#970000
b00000000000000000000000001011110 $
b00000000000000000000000001011101 &
0/
#975000
b001011111 (
b001011110 )
b10100011 *
b00000000000000000000000001011100 +
1/
#980000
b00000000000000000000000001011111 $
b00000000000000000000000001011110 &
0/
#985000
b001100000 (
b001011111 )
b10100010 *
b00000000000000000000000001011101 +
1/
#990000
b00000000000000000000000001100000 $
b00000000000000000000000001011111 &
0/
#995000
b001100001 (
b001100000 )
b10100001 *
b00000000000000000000000001011110 +
1/
#1000000
b00000000000000000000000001100001 $
b00000000000000000000000001100000 &
0/
#1005000
b001100010 (
b001100001 )
b10100000 *
b00000000000000000000000001011111 +
1/
#1010000
b00000000000000000000000001100010 $
b00000000000000000000000001100001 &
0/
#1015000
b001100011 (
b001100010 )
b10011111 *
b00000000000000000000000001100000 +
1/
#1020000
b00000000000000000000000001100011 $
b00000000000000000000000001100010 &
0/
#1025000
b001100100 (
b001100011 )
b10011110 *
b00000000000000000000000001100001 +
1/
#1030000
b00000000000000000000000001100100 $
b00000000000000000000000001100011 &
0/
#1035000
b001100101 (
b001100100 )
b10011101 *
b00000000000000000000000001100010 +
1/
#1040000
b00000000000000000000000001100101 $
b00000000000000000000000001100100 &
0/
#1045000
b001100110 (
b001100101 )
b10011100 *
b00000000000000000000000001100011 +
1/
#1050000
b00000000000000000000000001100110 $
b00000000000000000000000001100101 &
0/
#1055000
b001100111 (
b001100110 )
b10011011 *
b00000000000000000000000001100100 +
1/
#1060000
b00000000000000000000000001100111 $
b00000000000000000000000001100110 &
0/
#1065000
b001101000 (
b001100111 )
b10011010 *
b00000000000000000000000001100101 +
1/
#1070000
b00000000000000000000000001101000 $
b00000000000000000000000001100111 &
0/
#1075000
b001101001 (
b001101000 )
b10011001 *
b00000000000000000000000001100110 +
1/
#1080000
b00000000000000000000000001101001 $
b00000000000000000000000001101000 &
0/
#1085000
b001101010 (
b001101001 )
b10011000 *
b00000000000000000000000001100111 +
1/
#1090000
b00000000000000000000000001101010 $
b00000000000000000000000001101001 &
0/
#1095000
b001101011 (
b001101010 )
b10010111 *
b00000000000000000000000001101000 +
1/
#1100000
b00000000000000000000000001101011 $
b00000000000000000000000001101010 &
0/
#1105000
b001101100 (
b001101011 )
b10010110 *
b00000000000000000000000001101001 +
1/
#1110000
b00000000000000000000000001101100 $
b00000000000000000000000001101011 &
0/
#1115000
b001101101 (
b001101100 )
b10010101 *
b00000000000000000000000001101010 +
1/
#1120000
b00000000000000000000000001101101 $
b00000000000000000000000001101100 &
0/
#1125000
b001101110 (
b001101101 )
b10010100 *
b00000000000000000000000001101011 +
1/
#1130000
b00000000000000000000000001101110 $
b00000000000000000000000001101101 &
0/
#1135000
b001101111 (
b001101110 )
b10010011 *
b00000000000000000000000001101100 +
1/
#1140000
b00000000000000000000000001101111 $
b00000000000000000000000001101110 &
0/
#1145000
b001110000 (
b001101111 )
b10010010 *
b00000000000000000000000001101101 +
1/
#1150000
b00000000000000000000000001110000 $
b00000000000000000000000001101111 &
0/
#1155000
b001110001 (
b001110000 )
b10010001 *
b00000000000000000000000001101110 +
1/
#1160000
b00000000000000000000000001110001 $
b00000000000000000000000001110000 &
0/
#1165000
b001110010 (
b001110001 )
b10010000 *
b00000000000000000000000001101111 +
1/
#1170000
b00000000000000000000000001110010 $
b00000000000000000000000001110001 &
0/
#1175000
b001110011 (
b001110010 )
b10001111 *
b00000000000000000000000001110000 +
1/
#1180000
b00000000000000000000000001110011 $
b00000000000000000000000001110010 &
0/
#1185000
b001110100 (
b001110011 )
b10001110 *
b00000000000000000000000001110001 +
1/
#1190000
b00000000000000000000000001110100 $
b00000000000000000000000001110011 &
0/
#1195000
b001110101 (
b001110100 )
b10001101 *
b00000000000000000000000001110010 +
1/
#1200000
b00000000000000000000000001110101 $
b00000000000000000000000001110100 &
0/
#1205000
b001110110 (
b001110101 )
b10001100 *
b00000000000000000000000001110011 +
1/
#1210000
b00000000000000000000000001110110 $
b00000000000000000000000001110101 &
0/
#1215000
b001110111 (
b001110110 )
b10001011 *
b00000000000000000000000001110100 +
1/
#1220000
b00000000000000000000000001110111 $
b00000000000000000000000001110110 &
0/
#1225000
b001111000 (
b001110111 )
b10001010 *
b00000000000000000000000001110101 +
1/
#1230000
b00000000000000000000000001111000 $
b00000000000000000000000001110111 &
0/
#1235000
b001111001 (
b001111000 )
b10001001 *
b00000000000000000000000001110110 +
1/
#1240000
b00000000000000000000000001111001 $
b00000000000000000000000001111000 &
0/
#1245000
b001111010 (
b001111001 )
b10001000 *
b00000000000000000000000001110111 +
1/
#1250000
b00000000000000000000000001111010 $
b00000000000000000000000001111001 &
0/
#1255000
b001111011 (
b001111010 )
b10000111 *
b00000000000000000000000001111000 +
1/
#1260000
b00000000000000000000000001111011 $
b00000000000000000000000001111010 &
0/
#1265000
b001111100 (
b001111011 )
b10000110 *
b00000000000000000000000001111001 +
1/
#1270000
b00000000000000000000000001111100 $
b00000000000000000000000001111011 &
0/
#1275000
b001111101 (
b001111100 )
b10000101 *
b00000000000000000000000001111010 +
1/
#1280000
b00000000000000000000000001111101 $
b00000000000000000000000001111100 &
0/
#1285000
b001111110 (
b001111101 )
b10000100 *
b00000000000000000000000001111011 +
1/
#1290000
b00000000000000000000000001111110 $
b00000000000000000000000001111101 &
0/
#1295000
b001111111 (
b001111110 )
b10000011 *
b00000000000000000000000001111100 +
1/
#1300000
b00000000000000000000000001111111 $
b00000000000000000000000001111110 &
0/
#1305000
b010000000 (
b001111111 )
b10000010 *
b00000000000000000000000001111101 +
1/
#1310000
b00000000000000000000000010000000 $
b00000000000000000000000001111111 &
0/
#1315000
b010000001 (
b010000000 )
b10000001 *
b00000000000000000000000001111110 +
1/
#1320000
b00000000000000000000000010000001 $
b00000000000000000000000010000000 &
0/
#1325000
b010000010 (
b010000001 )
b10000000 *
b00000000000000000000000001111111 +
1/
#1330000
b00000000000000000000000010000010 $
b00000000000000000000000010000001 &
0/
#1335000
b010000011 (
b010000010 )
b01111111 *
b00000000000000000000000010000000 +
1/
#1340000
b00000000000000000000000010000011 $
b00000000000000000000000010000010 &
0/
#1345000
b010000100 (
b010000011 )
b01111110 *
b00000000000000000000000010000001 +
1/
#1350000
b00000000000000000000000010000100 $
b00000000000000000000000010000011 &
0/
#1355000
b010000101 (
b010000100 )
b01111101 *
b00000000000000000000000010000010 +
1/
#1360000
b00000000000000000000000010000101 $
b00000000000000000000000010000100 &
0/
#1365000
b010000110 (
b010000101 )
b01111100 *
b00000000000000000000000010000011 +
1/
#1370000
b00000000000000000000000010000110 $
b00000000000000000000000010000101 &
0/
#1375000
b010000111 (
b010000110 )
b01111011 *
b00000000000000000000000010000100 +
1/
#1380000
b00000000000000000000000010000111 $
b00000000000000000000000010000110 &
0/
#1385000
b010001000 (
b010000111 )
b01111010 *
b00000000000000000000000010000101 +
1/
#1390000
b00000000000000000000000010001000 $
b00000000000000000000000010000111 &
0/
#1395000
b010001001 (
b010001000 )
b01111001 *
b00000000000000000000000010000110 +
1/
#1400000
b00000000000000000000000010001001 $
b00000000000000000000000010001000 &
0/
#1405000
b010001010 (
b010001001 )
b01111000 *
b00000000000000000000000010000111 +
1/
#1410000
b00000000000000000000000010001010 $
b00000000000000000000000010001001 &
0/
#1415000
b010001011 (
b010001010 )
b01110111 *
b00000000000000000000000010001000 +
1/
#1420000
b00000000000000000000000010001011 $
b00000000000000000000000010001010 &
0/
#1425000
b010001100 (
b010001011 )
b01110110 *
b00000000000000000000000010001001 +
1/
#1430000
b00000000000000000000000010001100 $
b00000000000000000000000010001011 &
0/
#1435000
b010001101 (
b010001100 )
b01110101 *
b00000000000000000000000010001010 +
1/
#1440000
b00000000000000000000000010001101 $
b00000000000000000000000010001100 &
0/
#1445000
b010001110 (
b010001101 )
b01110100 *
b00000000000000000000000010001011 +
1/
#1450000
b00000000000000000000000010001110 $
b00000000000000000000000010001101 &
0/
#1455000
b010001111 (
b010001110 )
b01110011 *
b00000000000000000000000010001100 +
1/
#1460000
b00000000000000000000000010001111 $
b00000000000000000000000010001110 &
0/
#1465000
b010010000 (
b010001111 )
b01110010 *
b00000000000000000000000010001101 +
1/
#1470000
b00000000000000000000000010010000 $
b00000000000000000000000010001111 &
0/
#1475000
b010010001 (
b010010000 )
b01110001 *
b00000000000000000000000010001110 +
1/
#1480000
b00000000000000000000000010010001 $
b00000000000000000000000010010000 &
0/
#1485000
b010010010 (
b010010001 )
b01110000 *
b00000000000000000000000010001111 +
1/
#1490000
b00000000000000000000000010010010 $
b00000000000000000000000010010001 &
0/
#1495000
b010010011 (
b010010010 )
b01101111 *
b00000000000000000000000010010000 +
1/
#1500000
b00000000000000000000000010010011 $
b00000000000000000000000010010010 &
0/
#1505000
b010010100 (
b010010011 )
b01101110 *
b00000000000000000000000010010001 +
1/
#1510000
b00000000000000000000000010010100 $
b00000000000000000000000010010011 &
0/
#1515000
b010010101 (
b010010100 )
b01101101 *
b00000000000000000000000010010010 +
1/
#1520000
b00000000000000000000000010010101 $
b00000000000000000000000010010100 &
0/
#1525000
b010010110 (
b010010101 )
b01101100 *
b00000000000000000000000010010011 +
1/
#1530000
b00000000000000000000000010010110 $
b00000000000000000000000010010101 &
0/
#1535000
b010010111 (
b010010110 )
b01101011 *
b00000000000000000000000010010100 +
1/
#1540000
b00000000000000000000000010010111 $
b00000000000000000000000010010110 &
0/
#1545000
b010011000 (
b010010111 )
b01101010 *
b00000000000000000000000010010101 +
1/
#1550000
b00000000000000000000000010011000 $
b00000000000000000000000010010111 &
0/
#1555000
b010011001 (
b010011000 )
b01101001 *
b00000000000000000000000010010110 +
1/
#1560000
b00000000000000000000000010011001 $
b00000000000000000000000010011000 &
0/
#1565000
b010011010 (
b010011001 )
b01101000 *
b00000000000000000000000010010111 +
1/
#1570000
b00000000000000000000000010011010 $
b00000000000000000000000010011001 &
0/
#1575000
b010011011 (
b010011010 )
b01100111 *
b00000000000000000000000010011000 +
1/
#1580000
b00000000000000000000000010011011 $
b00000000000000000000000010011010 &
0/
#1585000
b010011100 (
b010011011 )
b01100110 *
b00000000000000000000000010011001 +
1/
#1590000
b00000000000000000000000010011100 $
b00000000000000000000000010011011 &
0/
#1595000
b010011101 (
b010011100 )
b01100101 *
b00000000000000000000000010011010 +
1/
#1600000
b00000000000000000000000010011101 $
b00000000000000000000000010011100 &
0/
#1605000
b010011110 (
b010011101 )
b01100100 *
b00000000000000000000000010011011 +
1/
#1610000
b00000000000000000000000010011110 $
b00000000000000000000000010011101 &
0/
#1615000
b010011111 (
b010011110 )
b01100011 *
b00000000000000000000000010011100 +
1/
#1620000
b00000000000000000000000010011111 $
b00000000000000000000000010011110 &
0/
#1625000
b010100000 (
b010011111 )
b01100010 *
b00000000000000000000000010011101 +
1/
#1630000
b00000000000000000000000010100000 $
b00000000000000000000000010011111 &
0/
#1635000
b010100001 (
b010100000 )
b01100001 *
b00000000000000000000000010011110 +
1/
#1640000
b00000000000000000000000010100001 $
b00000000000000000000000010100000 &
0/
#1645000
b010100010 (
b010100001 )
b01100000 *
b00000000000000000000000010011111 +
1/
#1650000
b00000000000000000000000010100010 $
b00000000000000000000000010100001 &
0/
#1655000
b010100011 (
b010100010 )
b01011111 *
b00000000000000000000000010100000 +
1/
#1660000
b00000000000000000000000010100011 $
b00000000000000000000000010100010 &
0/
#1665000
b010100100 (
b010100011 )
b01011110 *
b00000000000000000000000010100001 +
1/
#1670000
b00000000000000000000000010100100 $
b00000000000000000000000010100011 &
0/
#1675000
b010100101 (
b010100100 )
b01011101 *
b00000000000000000000000010100010 +
1/
#1680000
b00000000000000000000000010100101 $
b00000000000000000000000010100100 &
0/
#1685000
b010100110 (
b010100101 )
b01011100 *
b00000000000000000000000010100011 +
1/
#1690000
b00000000000000000000000010100110 $
b00000000000000000000000010100101 &
0/
#1695000
b010100111 (
b010100110 )
b01011011 *
b00000000000000000000000010100100 +
1/
#1700000
b00000000000000000000000010100111 $
b00000000000000000000000010100110 &
0/
#1705000
b010101000 (
b010100111 )
b01011010 *
b00000000000000000000000010100101 +
1/
#1710000
b00000000000000000000000010101000 $
b00000000000000000000000010100111 &
0/
#1715000
b010101001 (
b010101000 )
b01011001 *
b00000000000000000000000010100110 +
1/
#1720000
b00000000000000000000000010101001 $
b00000000000000000000000010101000 &
0/
#1725000
b010101010 (
b010101001 )
b01011000 *
b00000000000000000000000010100111 +
1/
#1730000
b00000000000000000000000010101010 $
b00000000000000000000000010101001 &
0/
#1735000
b010101011 (
b010101010 )
b01010111 *
b00000000000000000000000010101000 +
1/
#1740000
b00000000000000000000000010101011 $
b00000000000000000000000010101010 &
0/
#1745000
b010101100 (
b010101011 )
b01010110 *
b00000000000000000000000010101001 +
1/
#1750000
b00000000000000000000000010101100 $
b00000000000000000000000010101011 &
0/
#1755000
b010101101 (
b010101100 )
b01010101 *
b00000000000000000000000010101010 +
1/
#1760000
b00000000000000000000000010101101 $
b00000000000000000000000010101100 &
0/
#1765000
b010101110 (
b010101101 )
b01010100 *
b00000000000000000000000010101011 +
1/
